﻿{
    "authors": [
        "Christiaan de Ridder <ik@christiaanderidder.nl>"
    ],
    "description": "All POCO models used by the different assemblies of the app",
    "version": "1.0.0",
    "dependencies": {
        
    },

    "frameworks": {
        "aspnet50": { 
            "dependencies": {
            }
        },
        "aspnetcore50": {
            "dependencies": {
                "System.Runtime": "4.0.20.0"
            }
        }
    }
}
