﻿{
    "authors": [
        "Christiaan de Ridder <ik@christiaanderidder.nl>"
    ],
    "description": "A boilerplate webapp built using ASP vNext",
    "version": "1.0.0",
    "dependencies": {
        "Microsoft.AspNet.Server.IIS" : "1.0.0-*",
        "Microsoft.AspNet.Mvc": "6.0.0-*",
        "Microsoft.AspNet.Server.WebListener": "1.0.0-*",
        "Microsoft.AspNet.Diagnostics": "1.0.0-*",
        "Microsoft.AspNet.StaticFiles": "1.0.0-*",
        "Microsoft.Framework.DependencyInjection.Ninject": "1.0.0-*",

        "MyApp.Core": "",
        "MyApp.Services":  "",
        "MyApp.Models":  ""
    },
    "frameworks": {
        "aspnet50": { },
        "aspnetcore50": { }
    },
    "webroot": "Public",
    "exclude": "Public/**/*.*",
    "commands": {
        "web": "Microsoft.AspNet.Hosting --server Microsoft.AspNet.Server.WebListener --server.urls http://localhost:5000",
        "run": "run server.urls=http://localhost:5003"
    }
}
